[0mGET / [32m200 [0m50.527 ms - 1032[0m
[0mGET /smoothie.js [32m200 [0m9.505 ms - 32019[0m
[0mGET /favicon.ico [32m200 [0m10.643 ms - 5[0m
[0mGET / [32m200 [0m34.555 ms - 1032[0m
[0mGET /smoothie.js [32m200 [0m4.895 ms - 32019[0m
[0mGET /favicon.ico [32m200 [0m3.314 ms - 5[0m
[0mGET / [36m304 [0m5.436 ms - -[0m
[0mGET /smoothie.js [36m304 [0m7.655 ms - -[0m
[0mGET /favicon.ico [36m304 [0m1.646 ms - -[0m
[0mGET / [36m304 [0m5.502 ms - -[0m
[0mGET /smoothie.js [36m304 [0m1.632 ms - -[0m
[0mGET /favicon.ico [36m304 [0m2.284 ms - -[0m
sending data:  { class: 'memory',
  key: 'capacity',
  value: 76.1260854013,
  timestamp: 1422908866.2 }
sending data:  { class: 'memory',
  key: 'capacity',
  value: 76.2400795601,
  timestamp: 1422908871.21 }
sending data:  { class: 'memory',
  key: 'capacity',
  value: 76.2467619763,
  timestamp: 1422908876.23 }
sending data:  { class: 'memory',
  key: 'capacity',
  value: 76.2471550596,
  timestamp: 1422908881.25 }
sending data:  { class: 'memory',
  key: 'capacity',
  value: 76.2475481429,
  timestamp: 1422908886.26 }
sending data:  { class: 'memory',
  key: 'capacity',
  value: 76.2475481429,
  timestamp: 1422908891.29 }
sending data:  { class: 'memory',
  key: 'capacity',
  value: 76.2778155575,
  timestamp: 1422908896.3 }
sending data:  { class: 'memory',
  key: 'capacity',
  value: 76.2774224741,
  timestamp: 1422908901.33 }
sending data:  { class: 'memory',
  key: 'capacity',
  value: 76.2778155575,
  timestamp: 1422908906.37 }
sending data:  { class: 'memory',
  key: 'capacity',
  value: 76.3206616378,
  timestamp: 1422908911.39 }
sending data:  { class: 'memory',
  key: 'capacity',
  value: 76.3831618835,
  timestamp: 1422908916.4 }
sending data:  { class: 'memory',
  key: 'capacity',
  value: 76.3843411334,
  timestamp: 1422908921.42 }
sending data:  { class: 'memory',
  key: 'capacity',
  value: 76.2793878907,
  timestamp: 1422908926.44 }
sending data:  { class: 'memory',
  key: 'capacity',
  value: 76.2809602239,
  timestamp: 1422908931.45 }
sending data:  { class: 'memory',
  key: 'capacity',
  value: 76.3139792216,
  timestamp: 1422908936.48 }
sending data:  { class: 'memory',
  key: 'capacity',
  value: 76.3147653882,
  timestamp: 1422908941.5 }
sending data:  { class: 'memory',
  key: 'capacity',
  value: 76.3151584715,
  timestamp: 1422908946.53 }
sending data:  { class: 'memory',
  key: 'capacity',
  value: 76.3155515548,
  timestamp: 1422908951.55 }
sending data:  { class: 'memory',
  key: 'capacity',
  value: 76.2876426401,
  timestamp: 1422908956.58 }
sending data:  { class: 'memory',
  key: 'capacity',
  value: 76.2872495568,
  timestamp: 1422908961.6 }
sending data:  { class: 'memory',
  key: 'capacity',
  value: 76.2864633902,
  timestamp: 1422908966.61 }
sending data:  { class: 'memory',
  key: 'capacity',
  value: 76.2872495568,
  timestamp: 1422908971.64 }
sending data:  { class: 'memory',
  key: 'capacity',
  value: 76.2884288067,
  timestamp: 1422908976.66 }
sending data:  { class: 'memory',
  key: 'capacity',
  value: 76.2927527231,
  timestamp: 1422908981.68 }
sending data:  { class: 'memory',
  key: 'capacity',
  value: 76.2923596398,
  timestamp: 1422908986.69 }
sending data:  { class: 'memory',
  key: 'capacity',
  value: 76.2927527231,
  timestamp: 1422908991.71 }
sending data:  { class: 'memory',
  key: 'capacity',
  value: 76.2951112229,
  timestamp: 1422908996.73 }
sending data:  { class: 'memory',
  key: 'capacity',
  value: 76.2951112229,
  timestamp: 1422909001.75 }
sending data:  { class: 'memory',
  key: 'capacity',
  value: 76.2951112229,
  timestamp: 1422909006.77 }
sending data:  { class: 'memory',
  key: 'capacity',
  value: 76.2951112229,
  timestamp: 1422909011.78 }
sending data:  { class: 'memory',
  key: 'capacity',
  value: 76.3226270544,
  timestamp: 1422909016.8 }
sending data:  { class: 'memory',
  key: 'capacity',
  value: 76.3245924709,
  timestamp: 1422909021.82 }
sending data:  { class: 'memory',
  key: 'capacity',
  value: 76.3245924709,
  timestamp: 1422909026.84 }
sending data:  { class: 'memory',
  key: 'capacity',
  value: 76.3245924709,
  timestamp: 1422909031.86 }
sending data:  { class: 'memory',
  key: 'capacity',
  value: 76.3257717208,
  timestamp: 1422909036.87 }
sending data:  { class: 'memory',
  key: 'capacity',
  value: 76.3261648041,
  timestamp: 1422909041.9 }
sending data:  { class: 'memory',
  key: 'capacity',
  value: 76.3265578874,
  timestamp: 1422909046.93 }
sending data:  { class: 'memory',
  key: 'capacity',
  value: 76.3269509707,
  timestamp: 1422909051.95 }
sending data:  { class: 'memory',
  key: 'capacity',
  value: 76.3269509707,
  timestamp: 1422909056.97 }
sending data:  { class: 'memory',
  key: 'capacity',
  value: 76.3269509707,
  timestamp: 1422909061.99 }
sending data:  { class: 'memory',
  key: 'capacity',
  value: 76.3269509707,
  timestamp: 1422909067 }
sending data:  { class: 'memory',
  key: 'capacity',
  value: 76.3269509707,
  timestamp: 1422909072.02 }
sending data:  { class: 'memory',
  key: 'capacity',
  value: 76.2974697228,
  timestamp: 1422909077.04 }
sending data:  { class: 'memory',
  key: 'capacity',
  value: 76.2974697228,
  timestamp: 1422909082.06 }
sending data:  { class: 'memory',
  key: 'capacity',
  value: 76.2978628061,
  timestamp: 1422909087.09 }
sending data:  { class: 'memory',
  key: 'capacity',
  value: 76.2986489727,
  timestamp: 1422909092.11 }
sending data:  { class: 'memory',
  key: 'capacity',
  value: 76.2986489727,
  timestamp: 1422909097.14 }
sending data:  { class: 'memory',
  key: 'capacity',
  value: 76.2986489727,
  timestamp: 1422909102.18 }
sending data:  { class: 'memory',
  key: 'capacity',
  value: 76.3002213059,
  timestamp: 1422909107.2 }
sending data:  { class: 'memory',
  key: 'capacity',
  value: 76.3002213059,
  timestamp: 1422909112.21 }
sending data:  { class: 'memory',
  key: 'capacity',
  value: 76.2978628061,
  timestamp: 1422909117.23 }
sending data:  { class: 'memory',
  key: 'capacity',
  value: 76.299042056,
  timestamp: 1422909122.25 }
sending data:  { class: 'memory',
  key: 'capacity',
  value: 76.2994351393,
  timestamp: 1422909127.27 }
sending data:  { class: 'memory',
  key: 'capacity',
  value: 76.2998282226,
  timestamp: 1422909132.29 }
sending data:  { class: 'memory',
  key: 'capacity',
  value: 76.3277371373,
  timestamp: 1422909137.3 }
sending data:  { class: 'memory',
  key: 'capacity',
  value: 76.3297025539,
  timestamp: 1422909142.32 }
sending data:  { class: 'memory',
  key: 'capacity',
  value: 76.3297025539,
  timestamp: 1422909147.33 }
sending data:  { class: 'memory',
  key: 'capacity',
  value: 76.3297025539,
  timestamp: 1422909152.36 }
sending data:  { class: 'memory',
  key: 'capacity',
  value: 76.327344054,
  timestamp: 1422909157.39 }
sending data:  { class: 'memory',
  key: 'capacity',
  value: 76.3308818038,
  timestamp: 1422909162.41 }
sending data:  { class: 'memory',
  key: 'capacity',
  value: 76.3285233039,
  timestamp: 1422909167.43 }
sending data:  { class: 'memory',
  key: 'capacity',
  value: 76.3297025539,
  timestamp: 1422909172.45 }
sending data:  { class: 'memory',
  key: 'capacity',
  value: 76.3300956372,
  timestamp: 1422909177.48 }
sending data:  { class: 'memory',
  key: 'capacity',
  value: 76.3300956372,
  timestamp: 1422909182.5 }
sending data:  { class: 'memory',
  key: 'capacity',
  value: 76.3300956372,
  timestamp: 1422909187.52 }
sending data:  { class: 'memory',
  key: 'capacity',
  value: 76.3300956372,
  timestamp: 1422909192.53 }
sending data:  { class: 'memory',
  key: 'capacity',
  value: 76.3006143892,
  timestamp: 1422909197.57 }
sending data:  { class: 'memory',
  key: 'capacity',
  value: 76.3010074725,
  timestamp: 1422909202.58 }
sending data:  { class: 'memory',
  key: 'capacity',
  value: 76.2994351393,
  timestamp: 1422909207.6 }
[0mGET / [32m200 [0m26.559 ms - 1254[0m
[0mGET /smoothie.js [36m304 [0m6.269 ms - -[0m
sending data:  { class: 'memory',
  key: 'capacity',
  value: 76.3210547211,
  timestamp: 1422909212.62 }
[0mGET /favicon.ico [36m304 [0m8.022 ms - -[0m
[0mGET / [36m304 [0m5.015 ms - -[0m
[0mGET /smoothie.js [36m304 [0m2.203 ms - -[0m
[0mGET /favicon.ico [36m304 [0m3.058 ms - -[0m
sending data:  { class: 'memory',
  key: 'capacity',
  value: 76.3540737188,
  timestamp: 1422909217.64 }
sending data:  { class: 'memory',
  key: 'capacity',
  value: 76.3627215516,
  timestamp: 1422909222.66 }
sending data:  { class: 'memory',
  key: 'capacity',
  value: 76.3631146349,
  timestamp: 1422909227.67 }
sending data:  { class: 'memory',
  key: 'capacity',
  value: 76.3627215516,
  timestamp: 1422909232.69 }
sending data:  { class: 'memory',
  key: 'capacity',
  value: 76.3635077182,
  timestamp: 1422909237.71 }
sending data:  { class: 'memory',
  key: 'capacity',
  value: 76.3646869681,
  timestamp: 1422909242.73 }
sending data:  { class: 'memory',
  key: 'capacity',
  value: 76.3642938848,
  timestamp: 1422909247.74 }
sending data:  { class: 'memory',
  key: 'capacity',
  value: 76.3650800514,
  timestamp: 1422909252.76 }
sending data:  { class: 'memory',
  key: 'capacity',
  value: 76.3925958828,
  timestamp: 1422909257.78 }
sending data:  { class: 'memory',
  key: 'capacity',
  value: 76.3945612994,
  timestamp: 1422909262.81 }
sending data:  { class: 'memory',
  key: 'capacity',
  value: 76.3945612994,
  timestamp: 1422909267.83 }
[0mGET / [32m200 [0m9.893 ms - 1254[0m
[0mGET /smoothie.js [36m304 [0m2.964 ms - -[0m
[0mGET /favicon.ico [36m304 [0m3.383 ms - -[0m
sending data:  { class: 'memory',
  key: 'capacity',
  value: 76.3980990491,
  timestamp: 1422909272.86 }
sending data:  { class: 'memory',
  key: 'capacity',
  value: 76.5113070413,
  timestamp: 1422909277.88 }
sending data:  { class: 'memory',
  key: 'capacity',
  value: 76.3855203833,
  timestamp: 1422909282.9 }
sending data:  { class: 'memory',
  key: 'capacity',
  value: 76.3855203833,
  timestamp: 1422909287.92 }
sending data:  { class: 'memory',
  key: 'capacity',
  value: 76.3866996333,
  timestamp: 1422909292.93 }
sending data:  { class: 'memory',
  key: 'capacity',
  value: 76.6056470348,
  timestamp: 1422909297.96 }
sending data:  { class: 'memory',
  key: 'capacity',
  value: 76.8226290198,
  timestamp: 1422909302.98 }
sending data:  { class: 'memory',
  key: 'capacity',
  value: 76.8226290198,
  timestamp: 1422909308.01 }
sending data:  { class: 'memory',
  key: 'capacity',
  value: 76.8234151864,
  timestamp: 1422909313.03 }
sending data:  { class: 'memory',
  key: 'capacity',
  value: 76.7939339384,
  timestamp: 1422909318.05 }
sending data:  { class: 'memory',
  key: 'capacity',
  value: 76.7939339384,
  timestamp: 1422909323.07 }
sending data:  { class: 'memory',
  key: 'capacity',
  value: 76.7939339384,
  timestamp: 1422909328.09 }
sending data:  { class: 'memory',
  key: 'capacity',
  value: 76.7943270217,
  timestamp: 1422909333.12 }
sending data:  { class: 'memory',
  key: 'capacity',
  value: 76.794720105,
  timestamp: 1422909338.16 }
sending data:  { class: 'memory',
  key: 'capacity',
  value: 76.7951131883,
  timestamp: 1422909343.18 }
sending data:  { class: 'memory',
  key: 'capacity',
  value: 76.7951131883,
  timestamp: 1422909348.2 }
sending data:  { class: 'memory',
  key: 'capacity',
  value: 76.7951131883,
  timestamp: 1422909353.22 }
sending data:  { class: 'memory',
  key: 'capacity',
  value: 76.7955062716,
  timestamp: 1422909358.25 }
sending data:  { class: 'memory',
  key: 'capacity',
  value: 76.8171258535,
  timestamp: 1422909363.27 }
sending data:  { class: 'memory',
  key: 'capacity',
  value: 76.8171258535,
  timestamp: 1422909368.29 }
sending data:  { class: 'memory',
  key: 'capacity',
  value: 76.8175189368,
  timestamp: 1422909373.31 }
sending data:  { class: 'memory',
  key: 'capacity',
  value: 76.8462140181,
  timestamp: 1422909378.33 }
sending data:  { class: 'memory',
  key: 'capacity',
  value: 76.8481794347,
  timestamp: 1422909383.35 }
sending data:  { class: 'memory',
  key: 'capacity',
  value: 76.8481794347,
  timestamp: 1422909388.36 }
sending data:  { class: 'memory',
  key: 'capacity',
  value: 76.9507741776,
  timestamp: 1422909393.39 }
sending data:  { class: 'memory',
  key: 'capacity',
  value: 76.8489656013,
  timestamp: 1422909398.42 }
sending data:  { class: 'memory',
  key: 'capacity',
  value: 76.852503351,
  timestamp: 1422909403.43 }
sending data:  { class: 'memory',
  key: 'capacity',
  value: 76.852503351,
  timestamp: 1422909408.46 }
sending data:  { class: 'memory',
  key: 'capacity',
  value: 76.8540756843,
  timestamp: 1422909413.48 }
sending data:  { class: 'memory',
  key: 'capacity',
  value: 76.8532895176,
  timestamp: 1422909418.49 }
sending data:  { class: 'memory',
  key: 'capacity',
  value: 76.8532895176,
  timestamp: 1422909423.51 }
sending data:  { class: 'memory',
  key: 'capacity',
  value: 76.8532895176,
  timestamp: 1422909428.54 }
sending data:  { class: 'memory',
  key: 'capacity',
  value: 76.8528964343,
  timestamp: 1422909433.58 }
sending data:  { class: 'memory',
  key: 'capacity',
  value: 76.8245944363,
  timestamp: 1422909438.59 }
sending data:  { class: 'memory',
  key: 'capacity',
  value: 76.8261667695,
  timestamp: 1422909443.61 }
sending data:  { class: 'memory',
  key: 'capacity',
  value: 76.8245944363,
  timestamp: 1422909448.63 }
sending data:  { class: 'memory',
  key: 'capacity',
  value: 76.8253806029,
  timestamp: 1422909453.66 }
sending data:  { class: 'memory',
  key: 'capacity',
  value: 76.8253806029,
  timestamp: 1422909458.68 }
sending data:  { class: 'memory',
  key: 'capacity',
  value: 76.8249875196,
  timestamp: 1422909463.7 }
sending data:  { class: 'memory',
  key: 'capacity',
  value: 76.8261667695,
  timestamp: 1422909468.72 }
sending data:  { class: 'memory',
  key: 'capacity',
  value: 76.8269529361,
  timestamp: 1422909473.76 }
sending data:  { class: 'memory',
  key: 'capacity',
  value: 76.8277391027,
  timestamp: 1422909478.78 }
sending data:  { class: 'memory',
  key: 'capacity',
  value: 76.8285252694,
  timestamp: 1422909483.79 }
sending data:  { class: 'memory',
  key: 'capacity',
  value: 76.8285252694,
  timestamp: 1422909488.81 }
sending data:  { class: 'memory',
  key: 'capacity',
  value: 76.9574565938,
  timestamp: 1422909493.82 }
sending data:  { class: 'memory',
  key: 'capacity',
  value: 76.9849724252,
  timestamp: 1422909498.84 }
sending data:  { class: 'memory',
  key: 'capacity',
  value: 76.987330925,
  timestamp: 1422909503.86 }
sending data:  { class: 'memory',
  key: 'capacity',
  value: 76.987330925,
  timestamp: 1422909508.88 }
sending data:  { class: 'memory',
  key: 'capacity',
  value: 76.987330925,
  timestamp: 1422909513.9 }
sending data:  { class: 'memory',
  key: 'capacity',
  value: 76.9877240083,
  timestamp: 1422909518.92 }
sending data:  { class: 'memory',
  key: 'capacity',
  value: 76.9881170917,
  timestamp: 1422909523.95 }
sending data:  { class: 'memory',
  key: 'capacity',
  value: 76.9881170917,
  timestamp: 1422909528.98 }
sending data:  { class: 'memory',
  key: 'capacity',
  value: 76.9900825082,
  timestamp: 1422909534 }
sending data:  { class: 'memory',
  key: 'capacity',
  value: 76.9904755915,
  timestamp: 1422909539.01 }
sending data:  { class: 'memory',
  key: 'capacity',
  value: 76.9904755915,
  timestamp: 1422909544.04 }
sending data:  { class: 'memory',
  key: 'capacity',
  value: 76.9904755915,
  timestamp: 1422909549.07 }
sending data:  { class: 'memory',
  key: 'capacity',
  value: 76.9881170917,
  timestamp: 1422909554.09 }
sending data:  { class: 'memory',
  key: 'capacity',
  value: 76.9598150936,
  timestamp: 1422909559.11 }
sending data:  { class: 'memory',
  key: 'capacity',
  value: 76.9609943435,
  timestamp: 1422909564.13 }
sending data:  { class: 'memory',
  key: 'capacity',
  value: 76.9609943435,
  timestamp: 1422909569.14 }
sending data:  { class: 'memory',
  key: 'capacity',
  value: 76.9613874268,
  timestamp: 1422909574.16 }
sending data:  { class: 'memory',
  key: 'capacity',
  value: 76.9613874268,
  timestamp: 1422909579.17 }
sending data:  { class: 'memory',
  key: 'capacity',
  value: 76.9613874268,
  timestamp: 1422909584.19 }
sending data:  { class: 'memory',
  key: 'capacity',
  value: 76.9613874268,
  timestamp: 1422909589.21 }
sending data:  { class: 'memory',
  key: 'capacity',
  value: 76.9613874268,
  timestamp: 1422909594.23 }
sending data:  { class: 'memory',
  key: 'capacity',
  value: 77.0671268362,
  timestamp: 1422909599.25 }
sending data:  { class: 'memory',
  key: 'capacity',
  value: 76.9617805101,
  timestamp: 1422909604.26 }
sending data:  { class: 'memory',
  key: 'capacity',
  value: 76.9617805101,
  timestamp: 1422909609.29 }
sending data:  { class: 'memory',
  key: 'capacity',
  value: 76.9617805101,
  timestamp: 1422909614.31 }
sending data:  { class: 'memory',
  key: 'capacity',
  value: 76.9892963416,
  timestamp: 1422909619.33 }
sending data:  { class: 'memory',
  key: 'capacity',
  value: 76.9916548414,
  timestamp: 1422909624.34 }
sending data:  { class: 'memory',
  key: 'capacity',
  value: 76.9916548414,
  timestamp: 1422909629.38 }
sending data:  { class: 'memory',
  key: 'capacity',
  value: 77.055334337,
  timestamp: 1422909634.4 }
sending data:  { class: 'memory',
  key: 'capacity',
  value: 76.9928340913,
  timestamp: 1422909639.41 }
[0mGET / [36m304 [0m8.421 ms - -[0m
[0mGET /smoothie.js [36m304 [0m3.028 ms - -[0m
[0mGET /favicon.ico [36m304 [0m2.866 ms - -[0m
[0mGET /data.json [32m200 [0m2.828 ms - 5[0m
[0mGET /favicon.ico [36m304 [0m3.092 ms - -[0m
sending data:  { class: 'memory',
  key: 'capacity',
  value: 77.0085574236,
  timestamp: 1422909644.43 }
sending data:  { class: 'memory',
  key: 'capacity',
  value: 77.0136675066,
  timestamp: 1422909649.45 }
sending data:  { class: 'memory',
  key: 'capacity',
  value: 76.5922822024,
  timestamp: 1422909654.47 }
sending data:  { class: 'memory',
  key: 'capacity',
  value: 76.5946407022,
  timestamp: 1422909659.49 }
sending data:  { id: 3178,
  class: 'memory',
  key: 'capacity',
  value: 74.0183727137,
  timestamp: 1422926688.12 }
sending data:  { id: 3179,
  class: 'memory',
  key: 'capacity',
  value: 76.96413901,
  timestamp: 1422926693.15 }
sending data:  { id: 3179,
  class: 'memory',
  key: 'capacity',
  value: 76.96413901,
  timestamp: 1422926693.15 }
sending data:  { id: 3180,
  class: 'memory',
  key: 'capacity',
  value: 77.3367819842,
  timestamp: 1422926698.17 }
sending data:  { id: 3180,
  class: 'memory',
  key: 'capacity',
  value: 77.3367819842,
  timestamp: 1422926698.17 }
sending data:  { id: 3181,
  class: 'memory',
  key: 'capacity',
  value: 77.3564361495,
  timestamp: 1422926703.19 }
sending data:  { id: 3181,
  class: 'memory',
  key: 'capacity',
  value: 77.3564361495,
  timestamp: 1422926703.19 }
sending data:  { id: 3182,
  class: 'memory',
  key: 'capacity',
  value: 77.3572223161,
  timestamp: 1422926708.2 }
sending data:  { id: 3182,
  class: 'memory',
  key: 'capacity',
  value: 77.3572223161,
  timestamp: 1422926708.2 }
sending data:  { id: 3183,
  class: 'memory',
  key: 'capacity',
  value: 77.3580084827,
  timestamp: 1422926713.23 }
sending data:  { id: 3183,
  class: 'memory',
  key: 'capacity',
  value: 77.3580084827,
  timestamp: 1422926713.23 }
sending data:  { id: 3184,
  class: 'memory',
  key: 'capacity',
  value: 77.3308857346,
  timestamp: 1422926718.26 }
sending data:  { id: 3184,
  class: 'memory',
  key: 'capacity',
  value: 77.3308857346,
  timestamp: 1422926718.26 }
sending data:  { id: 3185,
  class: 'memory',
  key: 'capacity',
  value: 77.3316719012,
  timestamp: 1422926723.27 }
sending data:  { id: 3185,
  class: 'memory',
  key: 'capacity',
  value: 77.3316719012,
  timestamp: 1422926723.27 }
sending data:  { id: 3186,
  class: 'memory',
  key: 'capacity',
  value: 77.3332442345,
  timestamp: 1422926728.29 }
sending data:  { id: 3186,
  class: 'memory',
  key: 'capacity',
  value: 77.3332442345,
  timestamp: 1422926728.29 }
sending data:  { id: 3187,
  class: 'memory',
  key: 'capacity',
  value: 77.3336373178,
  timestamp: 1422926733.31 }
sending data:  { id: 3187,
  class: 'memory',
  key: 'capacity',
  value: 77.3336373178,
  timestamp: 1422926733.31 }
sending data:  { id: 3188,
  class: 'memory',
  key: 'capacity',
  value: 77.3324580678,
  timestamp: 1422926738.33 }
sending data:  { id: 3188,
  class: 'memory',
  key: 'capacity',
  value: 77.3324580678,
  timestamp: 1422926738.33 }
sending data:  { id: 3189,
  class: 'memory',
  key: 'capacity',
  value: 77.3340304011,
  timestamp: 1422926743.35 }
sending data:  { id: 3189,
  class: 'memory',
  key: 'capacity',
  value: 77.3340304011,
  timestamp: 1422926743.35 }
sending data:  { id: 3190,
  class: 'memory',
  key: 'capacity',
  value: 77.3356027343,
  timestamp: 1422926748.38 }
sending data:  { id: 3190,
  class: 'memory',
  key: 'capacity',
  value: 77.3356027343,
  timestamp: 1422926748.38 }
sending data:  { id: 3191,
  class: 'memory',
  key: 'capacity',
  value: 77.3359958176,
  timestamp: 1422926753.4 }
sending data:  { id: 3191,
  class: 'memory',
  key: 'capacity',
  value: 77.3359958176,
  timestamp: 1422926753.4 }
sending data:  { id: 3192,
  class: 'memory',
  key: 'capacity',
  value: 77.3363889009,
  timestamp: 1422926758.41 }
sending data:  { id: 3193,
  class: 'memory',
  key: 'capacity',
  value: 77.339140484,
  timestamp: 1422926763.43 }
sending data:  { id: 3194,
  class: 'memory',
  key: 'capacity',
  value: 77.102897417,
  timestamp: 1422926768.45 }
sending data:  { id: 3195,
  class: 'memory',
  key: 'capacity',
  value: 77.1032905004,
  timestamp: 1422926773.47 }
sending data:  { id: 3196,
  class: 'memory',
  key: 'capacity',
  value: 77.1335579149,
  timestamp: 1422926778.69 }
[0mGET / [32m200 [0m34.306 ms - 3751[0m
[0mGET /smoothie.js [36m304 [0m12.071 ms - -[0m
[0mGET /flotr2.min.js [36m304 [0m9.885 ms - -[0m
[0mGET /Chart.min.js [36m304 [0m8.605 ms - -[0m
[0mGET /favicon.ico [36m304 [0m10.768 ms - -[0m
[0mGET /data?distance=5 [32m200 [0m45.418 ms - 9477[0m
[0mGET /data?distance=1440 [32m200 [0m46.306 ms - 46737[0m
[0mGET /data?distance=1440 [36m304 [0m40.702 ms - -[0m
[0mGET /data?distance=300 [32m200 [0m42.182 ms - 47102[0m
[0mGET /data?distance=120 [32m200 [0m47.014 ms - 45197[0m
[0mGET /data?distance=60 [32m200 [0m23.992 ms - 37637[0m
[0mGET /data?distance=15 [32m200 [0m22.446 ms - 28238[0m
[0mGET /data?distance=5 [32m200 [0m26.748 ms - 9385[0m
[0mGET /data?distance=1440 [36m304 [0m29.837 ms - -[0m
[0mGET /data?distance=300 [36m304 [0m27.360 ms - -[0m
[0mGET /data?distance=120 [32m200 [0m26.354 ms - 45197[0m
[0mGET /data?distance=60 [32m200 [0m27.253 ms - 37732[0m
[0mGET /data?distance=15 [32m200 [0m35.871 ms - 28238[0m
[0mGET / [36m304 [0m6.596 ms - -[0m
[0mGET /smoothie.js [36m304 [0m3.962 ms - -[0m
[0mGET /Chart.min.js [36m304 [0m3.655 ms - -[0m
[0mGET /flotr2.min.js [36m304 [0m3.253 ms - -[0m
[0mGET /data?distance=5 [32m200 [0m11.200 ms - 9469[0m
[0mGET /favicon.ico [36m304 [0m0.730 ms - -[0m
[0mGET /data?distance=15 [32m200 [0m21.111 ms - 28235[0m
[0mGET /data?distance=60 [32m200 [0m33.408 ms - 37634[0m
[0mGET /data?distance=120 [32m200 [0m35.726 ms - 45194[0m
[0mGET /data?distance=1440 [32m200 [0m52.585 ms - 46833[0m
[0mGET /data?distance=1440 [36m304 [0m42.552 ms - -[0m
[0mGET /data?distance=300 [32m200 [0m31.818 ms - 47100[0m
[0mGET /data?distance=120 [36m304 [0m24.915 ms - -[0m
[0mGET /data?distance=60 [32m200 [0m22.761 ms - 37729[0m
[0mGET /data?distance=15 [32m200 [0m24.792 ms - 28236[0m
[0mGET /data?distance=5 [32m200 [0m14.995 ms - 9474[0m
[0mGET / [32m200 [0m10.995 ms - 3449[0m
[0mGET /smoothie.js [36m304 [0m5.636 ms - -[0m
[0mGET /Chart.min.js [36m304 [0m3.680 ms - -[0m
[0mGET /flotr2.min.js [36m304 [0m3.433 ms - -[0m
[0mGET /data?distance=5 [32m200 [0m31.693 ms - 9482[0m
[0mGET /favicon.ico [36m304 [0m1.504 ms - -[0m
[0mGET / [32m200 [0m3.373 ms - 3438[0m
[0mGET /smoothie.js [36m304 [0m3.228 ms - -[0m
[0mGET /Chart.min.js [36m304 [0m2.824 ms - -[0m
[0mGET /flotr2.min.js [36m304 [0m2.765 ms - -[0m
[0mGET /data?distance=5 [32m200 [0m15.874 ms - 9386[0m
[0mGET /favicon.ico [36m304 [0m1.071 ms - -[0m
[0mGET / [32m200 [0m4.166 ms - 3666[0m
[0mGET /smoothie.js [36m304 [0m5.354 ms - -[0m
[0mGET /Chart.min.js [36m304 [0m4.835 ms - -[0m
[0mGET /flotr2.min.js [36m304 [0m3.943 ms - -[0m
[0mGET /data?distance=5 [32m200 [0m24.534 ms - 9473[0m
[0mGET /favicon.ico [36m304 [0m2.792 ms - -[0m
[0mGET / [32m200 [0m2.983 ms - 3661[0m
[0mGET /smoothie.js [36m304 [0m1.284 ms - -[0m
[0mGET /Chart.min.js [36m304 [0m1.087 ms - -[0m
[0mGET /flotr2.min.js [36m304 [0m0.845 ms - -[0m
[0mGET /data?distance=5 [32m200 [0m9.828 ms - 9473[0m
[0mGET /favicon.ico [36m304 [0m0.632 ms - -[0m
[0mGET / [32m200 [0m4.299 ms - 3438[0m
[0mGET /smoothie.js [36m304 [0m2.657 ms - -[0m
[0mGET /Chart.min.js [36m304 [0m2.246 ms - -[0m
[0mGET /flotr2.min.js [36m304 [0m1.782 ms - -[0m
[0mGET /data?distance=5 [32m200 [0m16.800 ms - 9377[0m
[0mGET /favicon.ico [36m304 [0m5.045 ms - -[0m
[0mGET / [32m200 [0m3.528 ms - 3679[0m
[0mGET /smoothie.js [36m304 [0m6.595 ms - -[0m
[0mGET /Chart.min.js [36m304 [0m3.748 ms - -[0m
[0mGET /flotr2.min.js [36m304 [0m3.587 ms - -[0m
[0mGET /data?distance=5 [32m200 [0m13.593 ms - 9377[0m
[0mGET /favicon.ico [36m304 [0m1.382 ms - -[0m
[0mGET / [32m200 [0m3.253 ms - 3648[0m
[0mGET /smoothie.js [36m304 [0m2.242 ms - -[0m
[0mGET /Chart.min.js [36m304 [0m3.705 ms - -[0m
[0mGET /flotr2.min.js [36m304 [0m3.310 ms - -[0m
[0mGET /data?distance=5 [32m200 [0m70.004 ms - 9377[0m
[0mGET /favicon.ico [36m304 [0m3.215 ms - -[0m
[0mGET / [32m200 [0m4.390 ms - 3655[0m
[0mGET /smoothie.js [36m304 [0m6.709 ms - -[0m
[0mGET /Chart.min.js [36m304 [0m5.813 ms - -[0m
[0mGET /flotr2.min.js [36m304 [0m5.644 ms - -[0m
[0mGET /data?distance=5 [32m200 [0m19.594 ms - 9378[0m
[0mGET /favicon.ico [36m304 [0m2.308 ms - -[0m
[0mGET /data?distance=60 [32m200 [0m31.764 ms - 37717[0m
[0mGET /data?distance=1440 [32m200 [0m45.189 ms - 47122[0m
[0mGET /favicon.ico [36m304 [0m2.404 ms - -[0m
[0mGET / [32m200 [0m3.829 ms - 3679[0m
[0mGET /flotr2.min.js [36m304 [0m3.675 ms - -[0m
[0mGET /data?distance=5 [32m200 [0m15.684 ms - 9372[0m
[0mGET /favicon.ico [36m304 [0m1.544 ms - -[0m
[0mGET /data?distance=15 [32m200 [0m28.273 ms - 28228[0m
[0mGET / [32m200 [0m5.180 ms - 3786[0m
[0mGET /flotr2.min.js [36m304 [0m4.388 ms - -[0m
[0mGET /data?distance=5 [32m200 [0m24.630 ms - 9475[0m
[0mGET /favicon.ico [36m304 [0m1.774 ms - -[0m
[0mGET / [32m200 [0m5.031 ms - 3860[0m
[0mGET /flotr2.min.js [36m304 [0m2.962 ms - -[0m
[0mGET /favicon.ico [36m304 [0m2.731 ms - -[0m
[0mGET /data?distance=5 [32m200 [0m30.187 ms - 9475[0m
[0mGET / [32m200 [0m4.113 ms - 3854[0m
[0mGET /flotr2.min.js [36m304 [0m3.359 ms - -[0m
[0mGET /data?distance=5 [32m200 [0m23.771 ms - 9479[0m
[0mGET /favicon.ico [36m304 [0m2.081 ms - -[0m
[0mGET / [32m200 [0m5.869 ms - 3794[0m
[0mGET /flotr2.min.js [36m304 [0m3.938 ms - -[0m
[0mGET /favicon.ico [36m304 [0m46.716 ms - -[0m
[0mGET /data?distance=5 [32m200 [0m77.727 ms - 9477[0m
[0mGET /favicon.ico [36m304 [0m2.116 ms - -[0m
[0mGET / [32m200 [0m4.140 ms - 3796[0m
[0mGET /flotr2.min.js [36m304 [0m2.618 ms - -[0m
[0mGET /favicon.ico [36m304 [0m2.173 ms - -[0m
[0mGET /data?distance=5 [32m200 [0m38.383 ms - 9476[0m
[0mGET / [32m200 [0m3.085 ms - 3998[0m
[0mGET /flotr2.min.js [36m304 [0m2.808 ms - -[0m
[0mGET /data?distance=5 [32m200 [0m22.097 ms - 9477[0m
[0mGET /favicon.ico [36m304 [0m2.664 ms - -[0m
[0mGET / [32m200 [0m4.576 ms - 3819[0m
[0mGET /flotr2.min.js [36m304 [0m2.013 ms - -[0m
[0mGET /data?distance=5 [32m200 [0m15.680 ms - 9382[0m
[0mGET /favicon.ico [36m304 [0m3.379 ms - -[0m
[0mGET / [32m200 [0m3.442 ms - 3795[0m
[0mGET /flotr2.min.js [36m304 [0m1.959 ms - -[0m
[0mGET /favicon.ico [36m304 [0m1.389 ms - -[0m
[0mGET /data?distance=5 [32m200 [0m25.124 ms - 9383[0m
[0mGET / [32m200 [0m4.812 ms - 4015[0m
[0mGET /flotr2.min.js [36m304 [0m3.446 ms - -[0m
[0mGET /data?distance=5 [32m200 [0m22.101 ms - 9475[0m
[0mGET /favicon.ico [36m304 [0m1.431 ms - -[0m
[0mGET / [32m200 [0m6.846 ms - 4152[0m
[0mGET /flotr2.min.js [36m304 [0m2.730 ms - -[0m
[0mGET /data?distance=5 [32m200 [0m18.787 ms - 9478[0m
[0mGET /favicon.ico [36m304 [0m1.795 ms - -[0m
[0mGET / [32m200 [0m15.866 ms - 4178[0m
[0mGET /flotr2.min.js [36m304 [0m2.478 ms - -[0m
[0mGET /data?distance=5 [32m200 [0m14.954 ms - 9482[0m
[0mGET /favicon.ico [36m304 [0m1.472 ms - -[0m
[0mGET / [32m200 [0m6.702 ms - 4180[0m
[0mGET /flotr2.min.js [36m304 [0m3.111 ms - -[0m
[0mGET /data?distance=5 [32m200 [0m18.388 ms - 9388[0m
[0mGET /favicon.ico [36m304 [0m1.453 ms - -[0m
[0mGET / [32m200 [0m13.688 ms - 4313[0m
[0mGET /flotr2.min.js [36m304 [0m2.232 ms - -[0m
[0mGET /data?distance=5 [32m200 [0m17.069 ms - 9386[0m
[0mGET /favicon.ico [36m304 [0m1.618 ms - -[0m
[0mGET / [32m200 [0m3.269 ms - 4303[0m
[0mGET /flotr2.min.js [36m304 [0m2.048 ms - -[0m
[0mGET /data?distance=5 [32m200 [0m14.991 ms - 9481[0m
[0mGET /favicon.ico [36m304 [0m1.323 ms - -[0m
[0mGET / [32m200 [0m4.648 ms - 4301[0m
[0mGET /flotr2.min.js [36m304 [0m2.194 ms - -[0m
[0mGET /data?distance=5 [32m200 [0m24.200 ms - 9482[0m
[0mGET /favicon.ico [36m304 [0m1.369 ms - -[0m
[0mGET / [32m200 [0m4.374 ms - 4305[0m
[0mGET /flotr2.min.js [36m304 [0m2.038 ms - -[0m
[0mGET /data?distance=5 [32m200 [0m22.729 ms - 9482[0m
[0mGET /favicon.ico [36m304 [0m1.329 ms - -[0m
[0mGET / [32m200 [0m2.696 ms - 4328[0m
[0mGET /flotr2.min.js [36m304 [0m1.936 ms - -[0m
[0mGET /data?distance=5 [32m200 [0m20.121 ms - 9483[0m
[0mGET /favicon.ico [36m304 [0m1.341 ms - -[0m
[0mGET / [32m200 [0m3.062 ms - 4330[0m
[0mGET /flotr2.min.js [36m304 [0m6.163 ms - -[0m
[0mGET /data?distance=5 [32m200 [0m22.772 ms - 9484[0m
[0mGET /favicon.ico [36m304 [0m1.960 ms - -[0m
[0mGET / [32m200 [0m2.478 ms - 4332[0m
[0mGET /flotr2.min.js [36m304 [0m2.084 ms - -[0m
[0mGET /data?distance=5 [32m200 [0m16.793 ms - 9389[0m
[0mGET /favicon.ico [36m304 [0m1.631 ms - -[0m
[0mGET / [32m200 [0m4.492 ms - 4332[0m
[0mGET /flotr2.min.js [36m304 [0m2.245 ms - -[0m
[0mGET /favicon.ico [36m304 [0m1.669 ms - -[0m
[0mGET /data?distance=5 [32m200 [0m32.431 ms - 9484[0m
[0mGET / [32m200 [0m6.605 ms - 4332[0m
[0mGET /flotr2.min.js [36m304 [0m1.458 ms - -[0m
[0mGET /favicon.ico [36m304 [0m4.649 ms - -[0m
[0mGET /data?distance=5 [32m200 [0m41.337 ms - 9388[0m
[0mGET / [32m200 [0m2.197 ms - 4361[0m
[0mGET /flotr2.min.js [36m304 [0m2.505 ms - -[0m
[0mGET /data?distance=5 [32m200 [0m17.994 ms - 9390[0m
[0mGET /favicon.ico [36m304 [0m1.335 ms - -[0m
